[gd_scene load_steps=2 format=2]

[ext_resource path="res://snake.gd" type="Script" id=1]

[node name="snake" type="Node2D"]
position = Vector2( 592, 346 )
script = ExtResource( 1 )
move_speed = 4000
initial_size = 2000
thickness = 5
color = Color( 0.929412, 0.788235, 0.454902, 1 )
divided_space_path = NodePath("../DividedSpace")
